{
  "konami": {
    "action": "devtools"
  },
  "polyline": {
    "padding": 8,
    "max": 100,
    "colors": [
      "#f00",
      "#0f0",
      "#00f"
    ]
  },
  "res": {
    "hello": "",
    "hello_another": ""
  },
  "pages": [
    {
      "type": "intro",
      "description": "",
      "color": "#FFA800"
    },
    {
      "type": "title",
      "question": "친구야!<br />커서 어떤 사람이 되고 싶어요?",
      "color": "#FFA800",
      "media": "_page1"
    },
    {
      "type": "title",
      "question": "데모 영상 시작",
      "color": "#00C767"
    },
    {
      "type": "title",
      "question": "우리 친구,<br />퀴즈 놀이 해볼까요?",
      "color": "#00C767",
      "media": "_page2"
    }
  ],
  "types": [
    {
      "name": {
        "ko": "언어",
        "en": "Word"
      },
      "description": "아나운서",
      "question": "우리 친구도<br />동물들을 말해볼래요?",
      "color": "#F70019",
      "media": "word"
    }, {
      "name": {
        "ko": "논리수학",
        "en": "Number"
      },
      "description": "과학자",
      "question": "우리 친구는<br />숫자놀이를 좋아해요?",
      "color": "#A000AD",
      "media": "number"
    }, {
      "name": {
        "ko": "음악",
        "en": "Music"
      },
      "description": "연주자",
      "question": "우리 친구는<br />제일 좋아하는 음악이 뭐에요?",
      "color": "#443BAF",
      "media": "music"
    }, {
      "name": {
        "ko": "공간미술",
        "en": "Picture"
      },
      "description": "디자이너",
      "question": "우리 친구는 제일 잘 그리는<br />그림이 뭐에요?",
      "color": "#009BE9",
      "media": "picture"
    }, {
      "name": {
        "ko": "신체운동",
        "en": "Body"
      },
      "description": "운동선수",
      "question": "우리 친구는<br />춤추기를 좋아해요?",
      "color": "#00917F",
      "media": "body"
    }, {
      "name": {
        "ko": "자아성찰",
        "en": "Myself"
      },
      "description": "상담사",
      "question": "우리 친구는<br />꿈이 뭐에요?",
      "color": "#68BE41",
      "media": "myself"
    }, {
      "name": {
        "ko": "인간친화",
        "en": "People"
      },
      "description": "환경운동가",
      "question": "학교에서 돌아온 아이는<br />왜 화가 났을까요?",
      "color": "#FFDD06",
      "media": "people"
    }, {
      "name": {
        "ko": "자연친화",
        "en": "Nature"
      },
      "description": "종교인",
      "question": "우리 친구는<br />어떤 동물이 좋아요?",
      "color": "#FF8500",
      "media": "nature"
    }
  ]
}
